{
	"mappings": {
		"stop_list": {
			"dynamic": "strict",
			"properties": {
				"stop_list_id": {
					"type": "string",
					"index": "not_analyzed"
				},
				"client_id": {
					"type": "string",
					"index": "not_analyzed"
				},
				"inn": {
					"type": "string",
					"index": "not_analyzed"
				},
				"kpp": {
					"type": "string",
					"index": "not_analyzed"
				},
				"full_name_rus": {
					"type": "string"
				},
				"short_name_rus": {
					"type": "string"
				},
				"full_name_en": {
					"type": "string"
				},
				"short_name_en": {
					"type": "string"
				},
				"okpo": {
					"type": "string",
					"index": "not_analyzed"
				},
				"ogrn": {
					"type": "string",
					"index": "not_analyzed"
				},
				"okfs": {
					"type": "string",
					"index": "not_analyzed"
				},
				"country": {
					"type": "string",
					"index": "not_analyzed"
				},
				"is_resident": {
					"type": "string",
					"index": "not_analyzed"
				},
				"inn_not_resident": {
					"type": "string",
					"index": "not_analyzed"
				},
				"stop_list_type": {
					"type": "string",
					"index": "not_analyzed"
				},
				"is_terrorist": {
					"type": "string",
					"index": "not_analyzed"
				},
				"file_id": {
					"type": "string",
					"index": "not_analyzed"
				}
			}
		}
	}
}