{
  "settings": {
    "analysis": {
      "analyzer": {
        "my": {
          "filter": [
            "lowercase"
          ],
          "tokenizer": "standard"
        },
        "autocomplete": {
          "filter": [
            "lowercase"
          ],
          "type": "custom",
          "tokenizer": "ngram_tokenizer"
        },
        "raw": {
          "filter": [
            "lowercase"
          ],
          "type": "custom",
          "tokenizer": "keyword"
        }
      },
      "tokenizer": {
        "ngram_tokenizer": {
          "token_chars": [
            "letter",
            "digit",
            "punctuation",
            "symbol"
          ],
          "min_gram": "1",
          "type": "nGram",
          "max_gram": "50"
        }
      }
    }
  }
}